…
Другой атакующий установил автоматическую задачу в системном
планировщике cron для экспорта содержимого внутренней wiki системы. Эта
система генерирует большое количество трафика в нерабочие часы, больше
чем остальные хосты. Определите IP этой системы. Известно, что ее IP
адрес отличается от нарушителя из предыдущей задачи.

``` r
filter_df <- df %>% select(timestamp, src, dst, bytes) %>% mutate(trafic = (str_detect(src, '1[2-4].*') & !str_detect(dst, '1[2-4].*')),time = hour(as_datetime(timestamp/1000))) %>% filter(trafic == TRUE, time >= 0 & time <= 24) %>% group_by(time) %>% summarise(trafictime = n()) %>% arrange(desc(trafictime))
```

``` r
filter_df |> collect()
```

    # A tibble: 24 × 2
        time trafictime
       <int>      <int>
     1    18    3305646
     2    23    3305086
     3    16    3304767
     4    22    3304743
     5    19    3303518
     6    21    3303328
     7    17    3301627
     8    20    3300709
     9    13     124857
    10     0     124851
    # ℹ 14 more rows
…
